cache_system.vcd
$date
	Wed Jan 14 19:42:46 2026
$end
$version
	Icarus Verilog
$end
$timescale
	1ps
$end
$scope module tb_cache_system $end
$var wire 1 ! dbg_lru $end
$var wire 1 " dbg_selected_way $end
$var wire 1 # dbg_writeback $end
$var wire 2 $ dbg_valid [1:0] $end
$var wire 2 % dbg_tag_match [1:0] $end
$var wire 4 & dbg_state [3:0] $end
$var wire 1 ' dbg_miss $end
$var wire 1 ( dbg_hit $end
$var wire 2 ) dbg_dirty [1:0] $end
$var wire 1 * cpu_resp $end
$var wire 1 + cpu_ready $end
$var wire 32 , cpu_rdata [31:0] $end
$var reg 1 - clk $end
$var reg 32 . cpu_addr [31:0] $end
$var reg 1 / cpu_req $end
$var reg 1 0 cpu_rw $end
$var reg 32 1 cpu_wdata [31:0] $end
$var reg 4 2 cpu_wstrb [3:0] $end
$var reg 32 3 expected_data [31:0] $end
$var reg 1 4 hit_flag $end
$var reg 32 5 read_data [31:0] $end
$var reg 1 6 rst $end
$var integer 32 7 errors [31:0] $end
$var integer 32 8 test_num [31:0] $end
$var integer 32 9 total_hits [31:0] $end
$var integer 32 : total_misses [31:0] $end
$scope module u_dut $end
$var wire 1 - clk $end
$var wire 32 ; cpu_addr [31:0] $end
$var wire 1 / cpu_req $end
$var wire 1 0 cpu_rw $end
$var wire 32 < cpu_wdata [31:0] $end
$var wire 4 = cpu_wstrb [3:0] $end
$var wire 1 ! dbg_lru $end
$var wire 1 " dbg_selected_way $end
$var wire 1 6 rst $end
$var wire 256 > mem_wdata [255:0] $end
$var wire 1 ? mem_rw $end
$var wire 1 @ mem_resp $end
$var wire 1 A mem_req $end
$var wire 1 B mem_ready $end
$var wire 256 C mem_rdata [255:0] $end
$var wire 32 D mem_addr [31:0] $end
$var wire 1 # dbg_writeback $end
$var wire 1 E dbg_valid_dm $end
$var wire 2 F dbg_valid [1:0] $end
$var wire 1 G dbg_tag_match_dm $end
$var wire 2 H dbg_tag_match [1:0] $end
$var wire 4 I dbg_state [3:0] $end
$var wire 1 ' dbg_miss $end
$var wire 1 ( dbg_hit $end
$var wire 1 J dbg_dirty_dm $end
$var wire 2 K dbg_dirty [1:0] $end
$var wire 1 * cpu_resp $end
$var wire 1 + cpu_ready $end
$var wire 32 L cpu_rdata [31:0] $end
$scope module u_cache $end
$var wire 1 M cache_dirty $end
$var wire 1 N cache_hit $end
$var wire 1 O cache_valid $end
$var wire 1 - clk $end
$var wire 32 P cpu_addr [31:0] $end
$var wire 1 / cpu_req $end
$var wire 1 0 cpu_rw $end
$var wire 32 Q cpu_wdata [31:0] $end
$var wire 4 R cpu_wstrb [3:0] $end
$var wire 256 S current_block [255:0] $end
$var wire 1 J dbg_dirty $end
$var wire 1 ( dbg_hit $end
$var wire 1 ' dbg_miss $end
$var wire 4 T dbg_state [3:0] $end
$var wire 1 G dbg_tag_match $end
$var wire 1 E dbg_valid $end
$var wire 1 # dbg_writeback $end
$var wire 1 6 rst $end
$var wire 32 U writeback_addr [31:0] $end
$var wire 1 V tag_match $end
$var wire 3 W req_word_offset [2:0] $end
$var wire 22 X req_tag [21:0] $end
$var wire 5 Y req_offset [4:0] $end
$var wire 5 Z req_index [4:0] $end
$var wire 1 @ mem_resp $end
$var wire 1 B mem_ready $end
$var wire 256 [ mem_rdata [255:0] $end
$var wire 3 \ lat_word_offset [2:0] $end
$var wire 22 ] lat_tag [21:0] $end
$var wire 5 ^ lat_offset [4:0] $end
$var wire 5 _ lat_index [4:0] $end
$var wire 1 ` cache_miss $end
$var reg 32 a cpu_rdata [31:0] $end
$var reg 1 + cpu_ready $end
$var reg 1 * cpu_resp $end
$var reg 32 b hit_count [31:0] $end
$var reg 1 c hit_flag $end
$var reg 1 d hit_latch $end
$var reg 32 e latched_addr [31:0] $end
$var reg 1 f latched_rw $end
$var reg 32 g latched_wdata [31:0] $end
$var reg 4 h latched_wstrb [3:0] $end
$var reg 32 i mem_addr [31:0] $end
$var reg 1 A mem_req $end
$var reg 1 ? mem_rw $end
$var reg 256 j mem_wdata [255:0] $end
$var reg 32 k miss_count [31:0] $end
$var reg 1 l miss_flag $end
$var reg 1 m miss_latch $end
$var reg 4 n next_state [3:0] $end
$var reg 4 o state [3:0] $end
$var reg 1 p writeback_flag $end
$var integer 32 q i [31:0] $end
$scope function get_word $end
$var reg 256 r block [255:0] $end
$var reg 3 s word_sel [2:0] $end
$upscope $end
$scope function set_word $end
$var reg 256 t block [255:0] $end
$var reg 32 u merged_word [31:0] $end
$var reg 32 v new_word [31:0] $end
$var reg 32 w old_word [31:0] $end
$var reg 3 x word_sel [2:0] $end
$var reg 4 y wstrb [3:0] $end
$upscope $end
$upscope $end
$scope module u_mem $end
$var wire 1 - clk $end
$var wire 32 z mem_addr [31:0] $end
$var wire 1 A mem_req $end
$var wire 1 ? mem_rw $end
$var wire 256 { mem_wdata [255:0] $end
$var wire 1 6 rst $end
$var wire 32 | base_word_addr [31:0] $end
$var parameter 32 } MEM_SIZE_WORDS $end
$var parameter 2 ~ M_IDLE $end
$var parameter 2 !" M_LATENCY $end
$var parameter 2 "" M_RESPOND $end
$var reg 4 #" latency_counter [3:0] $end
$var reg 256 $" mem_rdata [255:0] $end
$var reg 1 B mem_ready $end
$var reg 1 @ mem_resp $end
$var reg 2 %" mem_state [1:0] $end
$var reg 32 &" pending_addr [31:0] $end
$var reg 1 '" pending_req $end
$var reg 1 (" pending_rw $end
$var reg 256 )" pending_wdata [255:0] $end
$var integer 32 *" i [31:0] $end
$scope function peek_word $end
$var reg 32 +" byte_addr [31:0] $end
$upscope $end
$upscope $end
$upscope $end
$scope task check_read $end
$var reg 32 ," actual [31:0] $end
$var reg 32 -" addr [31:0] $end
$var reg 1 ." expect_hit $end
$var reg 32 /" expected [31:0] $end
$var reg 256 0" test_name [255:0] $end
$var reg 1 1" was_hit $end
$upscope $end
$scope task do_read $end
$var reg 32 2" addr [31:0] $end
$var reg 32 3" data [31:0] $end
$var reg 1 4" was_hit $end
$upscope $end
$scope task do_write $end
$var reg 32 5" addr [31:0] $end
$var reg 32 6" data [31:0] $end
$var reg 4 7" strb [3:0] $end
$var reg 1 8" was_hit $end
$upscope $end
$scope task wait_ready $end
$upscope $end
$upscope $end
$enddefinitions $end
$comment Show the parameter values. $end
$dumpall
b10 ""
b1 !"
b0 ~
b100000000000000 }
$end
#0
$dumpvars
x8"
bx 7"
bx 6"
bx 5"
x4"
bx 3"
bx 2"
x1"
bx 0"
bx /"
x."
bx -"
bx ,"
bx +"
b100000000000000 *"
b0 )"
0("
0'"
b0 &"
b0 %"
b0 $"
b0 #"
b0 |
b0 {
b0 z
bx y
bx x
bx w
bx v
bx u
bx t
bx s
bx r
b100000 q
0p
b0 o
b0 n
0m
0l
b0 k
b0 j
b0 i
b0 h
b0 g
0f
b0 e
0d
0c
b0 b
b0 a
1`
b0 _
b0 ^
b0 ]
b0 \
b0 [
b0 Z
b0 Y
b0 X
b0 W
1V
b0 U
b0 T
b0 S
b0 R
b0 Q
b0 P
0O
0N
0M
b0 L
b0 K
0J
b0 I
b11 H
1G
b0 F
0E
b0 D
b0 C
1B
0A
0@
0?
b0 >
b0 =
b0 <
b0 ;
b0 :
b0 9
b0 8
b0 7
16
bx 5
x4
bx 3
b0 2
b0 1
00
0/
b0 .
0-
b0 ,
1+
0*
b0 )
0(
0'
b0 &
b11 %
b0 $
0#
0"
0!
$end
#5000
b100000 q
1-
#10000
0-
#15000
b100000 q
1-
#20000
0-
#25000
b100000 q
1-
#30000
0-
#35000
b100000 q
1-
#40000
0-
#45000
b100000 q
1-
#50000
0-
#55000
b100000 q
1-
#60000
0-
#65000
b100000 q
1-
#70000
0-
#75000
b100000 q
1-
#80000
0-
#85000
b100000 q
1-
#90000
0-
#95000
06
1-
#100000
0-
#105000
1-
#110000
0-
#115000
1-
#120000
0-
#125000
1-
#130000
0-
#135000
1-
#140000
0-
#145000
b100000000 2"
b10000010010111000110001 0"
0."
b100000000 /"
b100000000 -"
b1 8
1-
#150000
0-
#155000
b1000 Z
b1 n
b100000000 .
b100000000 ;
b100000000 P
1/
1-
#160000
0-
#165000
b100000000 U
b1000 _
b11 n
0+
b100000000 e
b1 &
b1 I
b1 T
b1 o
0/
1-
#170000
0-
#175000
b110 n
b11 &
b11 I
b11 T
b11 o
1-
#180000
0-
#185000
b111 n
b1 k
1'
1m
1l
b110 &
b110 I
b110 T
b110 o
1-
#190000
0-
#195000
b111 &
b111 I
b111 T
b111 o
b100000000 D
b100000000 i
b100000000 z
1A
0l
1-
#200000
0-
#205000
b1000000 |
b1 %"
0B
b10 #"
b100000000 &"
1'"
0A
1-
#210000
0-
#215000
b1 #"
1-
#220000
0-
#225000
b0 #"
1-
#230000
0-
#235000
b10 %"
1-
#240000
0-
#245000
b1000 n
1B
b0 %"
0'"
1@
b10001110000000000000000000000000100011000000000000000000000000001000101000000000000000000000000010001000000000000000000000000000100001100000000000000000000000001000010000000000000000000000000010000010000000000000000000000000100000000 C
b10001110000000000000000000000000100011000000000000000000000000001000101000000000000000000000000010001000000000000000000000000000100001100000000000000000000000001000010000000000000000000000000010000010000000000000000000000000100000000 [
b10001110000000000000000000000000100011000000000000000000000000001000101000000000000000000000000010001000000000000000000000000000100001100000000000000000000000001000010000000000000000000000000010000010000000000000000000000000100000000 $"
1-
#250000
0-
#255000
b1001 n
b1000 &
b1000 I
b1000 T
b1000 o
0@
1-
#260000
0-
#265000
0`
1N
b0 n
b100000000 ,
b100000000 L
b100000000 a
b10001110000000000000000000000000100011000000000000000000000000001000101000000000000000000000000010001000000000000000000000000000100001100000000000000000000000001000010000000000000000000000000010000010000000000000000000000000100000000 S
b11 $
b11 F
1E
1O
b1001 &
b1001 I
b1001 T
b1001 o
b10001110000000000000000000000000100011000000000000000000000000001000101000000000000000000000000010001000000000000000000000000000100001100000000000000000000000001000010000000000000000000000000010000010000000000000000000000000100000000 r
b0 s
1-
#270000
0-
#275000
b0 &
b0 I
b0 T
b0 o
1+
1*
1-
#280000
0-
#285000
0*
b100000100 2"
b10000010010111000110010 0"
1."
b100000100 /"
b100000100 -"
b10 8
01"
b100000000 ,"
b1 :
04"
b100000000 3"
1-
#290000
0-
#295000
b100 Y
b1 W
b1 n
b100000100 .
b100000100 ;
b100000100 P
1/
1-
#300000
0-
#305000
b100 ^
b1 \
b10 n
0'
0m
0+
b100000100 e
b1 &
b1 I
b1 T
b1 o
0/
1-
#310000
0-
#315000
b1001 n
b10 &
b10 I
b10 T
b10 o
1-
#320000
0-
#325000
b0 n
b100000100 ,
b100000100 L
b100000100 a
b1 b
1(
1d
1c
b1001 &
b1001 I
b1001 T
b1001 o
b1 s
1-
#330000
0-
#335000
b0 &
b0 I
b0 T
b0 o
1+
1*
0c
1-
#340000
0-
#345000
0*
b100010000 2"
b10000010010111000110011 0"
b100010000 /"
b100010000 -"
b11 8
11"
b100000100 ,"
b1 9
14"
b100000100 3"
1-
#350000
0-
#355000
b10000 Y
b100 W
b1 n
b100010000 .
b100010000 ;
b100010000 P
1/
1-
#360000
0-
#365000
b10000 ^
b100 \
b10 n
0(
0d
0+
b100010000 e
b1 &
b1 I
b1 T
b1 o
0/
1-
#370000
0-
#375000
b1001 n
b10 &
b10 I
b10 T
b10 o
1-
#380000
0-
#385000
b0 n
b100010000 ,
b100010000 L
b100010000 a
b10 b
1(
1d
1c
b1001 &
b1001 I
b1001 T
b1001 o
b100 s
1-
#390000
0-
#395000
b0 &
b0 I
b0 T
b0 o
1+
1*
0c
1-
#400000
0-
#405000
0*
b100011100 2"
b10000010010111000110100 0"
b100011100 /"
b100011100 -"
b100 8
b100010000 ,"
b10 9
b100010000 3"
1-
#410000
0-
#415000
b11100 Y
b111 W
b1 n
b100011100 .
b100011100 ;
b100011100 P
1/
1-
#420000
0-
#425000
b11100 ^
b111 \
b10 n
0(
0d
0+
b100011100 e
b1 &
b1 I
b1 T
b1 o
0/
1-
#430000
0-
#435000
b1001 n
b10 &
b10 I
b10 T
b10 o
1-
#440000
0-
#445000
b0 n
b100011100 ,
b100011100 L
b100011100 a
b11 b
1(
1d
1c
b1001 &
b1001 I
b1001 T
b1001 o
b111 s
1-
#450000
0-
#455000
b0 &
b0 I
b0 T
b0 o
1+
1*
0c
1-
#460000
0-
#465000
0*
b100000000 2"
b10000100010111000110001 0"
b100000000 /"
b100000000 -"
b101 8
b100011100 ,"
b11 9
b100011100 3"
1-
#470000
0-
#475000
b0 Y
b0 W
b1 n
b100000000 .
b100000000 ;
b100000000 P
1/
1-
#480000
0-
#485000
b0 ^
b0 \
b10 n
0(
0d
0+
b100000000 e
b1 &
b1 I
b1 T
b1 o
0/
1-
#490000
0-
#495000
b1001 n
b10 &
b10 I
b10 T
b10 o
1-
#500000
0-
#505000
b0 n
b100000000 ,
b100000000 L
b100000000 a
b100 b
1(
1d
1c
b1001 &
b1001 I
b1001 T
b1001 o
b0 s
1-
#510000
0-
#515000
b0 &
b0 I
b0 T
b0 o
1+
1*
0c
1-
#520000
0-
#525000
0*
b10100000000 2"
b10000100010111000110010 0"
0."
b10100000000 /"
b10100000000 -"
b110 8
b100000000 ,"
b100 9
b100000000 3"
1-
#530000
0-
#535000
b1 X
b1 n
b10100000000 .
b10100000000 ;
b10100000000 P
1/
1-
#540000
0-
#545000
1`
0N
b0 %
b0 H
0G
0V
b1 ]
b11 n
0(
0d
0+
b10100000000 e
b1 &
b1 I
b1 T
b1 o
0/
1-
#550000
0-
#555000
b110 n
b11 &
b11 I
b11 T
b11 o
1-
#560000
0-
#565000
b111 n
b10 k
1'
1m
1l
b110 &
b110 I
b110 T
b110 o
1-
#570000
0-
#575000
b111 &
b111 I
b111 T
b111 o
b10100000000 D
b10100000000 i
b10100000000 z
1A
0l
1-
#580000
0-
#585000
b101000000 |
b1 %"
0B
b10 #"
b10100000000 &"
1'"
0A
1-
#590000
0-
#595000
b1 #"
1-
#600000
0-
#605000
b0 #"
1-
#610000
0-
#615000
b10 %"
1-
#620000
0-
#625000
b1000 n
1B
b0 %"
0'"
1@
b1010001110000000000000000000000010100011000000000000000000000000101000101000000000000000000000001010001000000000000000000000000010100001100000000000000000000000101000010000000000000000000000001010000010000000000000000000000010100000000 C
b1010001110000000000000000000000010100011000000000000000000000000101000101000000000000000000000001010001000000000000000000000000010100001100000000000000000000000101000010000000000000000000000001010000010000000000000000000000010100000000 [
b1010001110000000000000000000000010100011000000000000000000000000101000101000000000000000000000001010001000000000000000000000000010100001100000000000000000000000101000010000000000000000000000001010000010000000000000000000000010100000000 $"
1-
#630000
0-
#635000
b1001 n
b1000 &
b1000 I
b1000 T
b1000 o
0@
1-
#640000
0-
#645000
0`
1N
b0 n
b10100000000 ,
b10100000000 L
b10100000000 a
b1010001110000000000000000000000010100011000000000000000000000000101000101000000000000000000000001010001000000000000000000000000010100001100000000000000000000000101000010000000000000000000000001010000010000000000000000000000010100000000 S
b11 %
b11 H
1G
1V
b10100000000 U
b1001 &
b1001 I
b1001 T
b1001 o
b1010001110000000000000000000000010100011000000000000000000000000101000101000000000000000000000001010001000000000000000000000000010100001100000000000000000000000101000010000000000000000000000001010000010000000000000000000000010100000000 r
1-
#650000
0-
#655000
b0 &
b0 I
b0 T
b0 o
1+
1*
1-
#660000
0-
#665000
0*
b100000000 2"
b10000100010111000110011 0"
b100000000 /"
b100000000 -"
b111 8
01"
b10100000000 ,"
b10 :
04"
b10100000000 3"
1-
#670000
0-
#675000
b0 X
b1 n
b100000000 .
b100000000 ;
b100000000 P
1/
1-
#680000
0-
#685000
1`
0N
b0 %
b0 H
0G
0V
b0 ]
b11 n
0'
0m
0+
b100000000 e
b1 &
b1 I
b1 T
b1 o
0/
1-
#690000
0-
#695000
b110 n
b11 &
b11 I
b11 T
b11 o
1-
#700000
0-
#705000
b111 n
b11 k
1'
1m
1l
b110 &
b110 I
b110 T
b110 o
1-
#710000
0-
#715000
b111 &
b111 I
b111 T
b111 o
b100000000 D
b100000000 i
b100000000 z
1A
0l
1-
#720000
0-
#725000
b1000000 |
b1 %"
0B
b10 #"
b100000000 &"
1'"
0A
1-
#730000
0-
#735000
b1 #"
1-
#740000
0-
#745000
b0 #"
1-
#750000
0-
#755000
b10 %"
1-
#760000
0-
#765000
b1000 n
1B
b0 %"
0'"
1@
b10001110000000000000000000000000100011000000000000000000000000001000101000000000000000000000000010001000000000000000000000000000100001100000000000000000000000001000010000000000000000000000000010000010000000000000000000000000100000000 C
b10001110000000000000000000000000100011000000000000000000000000001000101000000000000000000000000010001000000000000000000000000000100001100000000000000000000000001000010000000000000000000000000010000010000000000000000000000000100000000 [
b10001110000000000000000000000000100011000000000000000000000000001000101000000000000000000000000010001000000000000000000000000000100001100000000000000000000000001000010000000000000000000000000010000010000000000000000000000000100000000 $"
1-
#770000
0-
#775000
b1001 n
b1000 &
b1000 I
b1000 T
b1000 o
0@
1-
#780000
0-
#785000
0`
1N
b0 n
b100000000 ,
b100000000 L
b100000000 a
b10001110000000000000000000000000100011000000000000000000000000001000101000000000000000000000000010001000000000000000000000000000100001100000000000000000000000001000010000000000000000000000000010000010000000000000000000000000100000000 S
b11 %
b11 H
1G
1V
b100000000 U
b1001 &
b1001 I
b1001 T
b1001 o
b10001110000000000000000000000000100011000000000000000000000000001000101000000000000000000000000010001000000000000000000000000000100001100000000000000000000000001000010000000000000000000000000010000010000000000000000000000000100000000 r
1-
#790000
0-
#795000
b0 &
b0 I
b0 T
b0 o
1+
1*
1-
#800000
0-
#805000
0*
b1000000000 2"
b10000110010111000110001 0"
b1000000000 /"
b1000000000 -"
b1010 8
b100000000 ,"
b11 :
b100000000 3"
1-
#810000
0-
#815000
b10000 Z
b1 n
b1000000000 .
b1000000000 ;
b1000000000 P
1/
1-
#820000
0-
#825000
1`
0N
b0 $
b0 F
0E
0O
b0 S
b1000000000 U
b10000 _
b11 n
0'
0m
0+
b1000000000 e
b1 &
b1 I
b1 T
b1 o
0/
1-
#830000
0-
#835000
b110 n
b11 &
b11 I
b11 T
b11 o
1-
#840000
0-
#845000
b111 n
b100 k
1'
1m
1l
b110 &
b110 I
b110 T
b110 o
1-
#850000
0-
#855000
b111 &
b111 I
b111 T
b111 o
b1000000000 D
b1000000000 i
b1000000000 z
1A
0l
1-
#860000
0-
#865000
b10000000 |
b1 %"
0B
b10 #"
b1000000000 &"
1'"
0A
1-
#870000
0-
#875000
b1 #"
1-
#880000
0-
#885000
b0 #"
1-
#890000
0-
#895000
b10 %"
1-
#900000
0-
#905000
b1000 n
1B
b0 %"
0'"
1@
b100001110000000000000000000000001000011000000000000000000000000010000101000000000000000000000000100001000000000000000000000000001000001100000000000000000000000010000010000000000000000000000000100000010000000000000000000000001000000000 C
b100001110000000000000000000000001000011000000000000000000000000010000101000000000000000000000000100001000000000000000000000000001000001100000000000000000000000010000010000000000000000000000000100000010000000000000000000000001000000000 [
b100001110000000000000000000000001000011000000000000000000000000010000101000000000000000000000000100001000000000000000000000000001000001100000000000000000000000010000010000000000000000000000000100000010000000000000000000000001000000000 $"
1-
#910000
0-
#915000
b1001 n
b1000 &
b1000 I
b1000 T
b1000 o
0@
1-
#920000
0-
#925000
0`
1N
b0 n
b1000000000 ,
b1000000000 L
b1000000000 a
b100001110000000000000000000000001000011000000000000000000000000010000101000000000000000000000000100001000000000000000000000000001000001100000000000000000000000010000010000000000000000000000000100000010000000000000000000000001000000000 S
b11 $
b11 F
1E
1O
b1001 &
b1001 I
b1001 T
b1001 o
b100001110000000000000000000000001000011000000000000000000000000010000101000000000000000000000000100001000000000000000000000000001000001100000000000000000000000010000010000000000000000000000000100000010000000000000000000000001000000000 r
1-
#930000
0-
#935000
b0 &
b0 I
b0 T
b0 o
1+
1*
1-
#940000
0-
#945000
0*
b1111 7"
b11011110101011011011111011101111 6"
b1000000000 5"
b1011 8
b1000000000 ,"
b100 :
b1000000000 3"
1-
#950000
0-
#955000
b1 n
b1111 2
b1111 =
b1111 R
b11011110101011011011111011101111 1
b11011110101011011011111011101111 <
b11011110101011011011111011101111 Q
10
1/
1-
#960000
0-
#965000
b10 n
0'
0m
0+
1f
b1111 h
b11011110101011011011111011101111 g
b1 &
b1 I
b1 T
b1 o
0/
1-
#970000
0-
#975000
b1001 n
b10 &
b10 I
b10 T
b10 o
1-
#980000
0-
#985000
b0 n
b11 )
b11 K
1J
1M
b100001110000000000000000000000001000011000000000000000000000000010000101000000000000000000000000100001000000000000000000000000001000001100000000000000000000000010000010000000000000000000000000100000010011011110101011011011111011101111 S
b101 b
1(
1d
1c
b1001 &
b1001 I
b1001 T
b1001 o
b11011110101011011011111011101111 u
b1000000000 w
b100001110000000000000000000000001000011000000000000000000000000010000101000000000000000000000000100001000000000000000000000000001000001100000000000000000000000010000010000000000000000000000000100000010000000000000000000000001000000000 t
b0 x
b11011110101011011011111011101111 v
b1111 y
1-
#990000
0-
#995000
b0 &
b0 I
b0 T
b0 o
1+
1*
0c
1-
#1000000
0-
#1005000
0*
b10000110010111000110011 0"
1."
b11011110101011011011111011101111 /"
b1100 8
14
b101 9
18"
1-
#1010000
0-
#1015000
b1 n
b0 2
b0 =
b0 R
b0 1
b0 <
b0 Q
00
1/
1-
#1020000
0-
#1025000
b10 n
0(
0d
0+
0f
b0 h
b0 g
b1 &
b1 I
b1 T
b1 o
0/
1-
#1030000
0-
#1035000
b1001 n
b10 &
b10 I
b10 T
b10 o
1-
#1040000
0-
#1045000
b0 n
b11011110101011011011111011101111 ,
b11011110101011011011111011101111 L
b11011110101011011011111011101111 a
b110 b
1(
1d
1c
b1001 &
b1001 I
b1001 T
b1001 o
b100001110000000000000000000000001000011000000000000000000000000010000101000000000000000000000000100001000000000000000000000000001000001100000000000000000000000010000010000000000000000000000000100000010011011110101011011011111011101111 r
1-
#1050000
0-
#1055000
b0 &
b0 I
b0 T
b0 o
1+
1*
0c
1-
#1060000
0-
#1065000
0*
b1000000100 2"
b1101 8
11"
b11011110101011011011111011101111 ,"
b110 9
14"
b11011110101011011011111011101111 3"
1-
#1070000
0-
#1075000
b100 Y
b1 W
b1 n
b1000000100 .
b1000000100 ;
b1000000100 P
1/
1-
#1080000
0-
#1085000
b100 ^
b1 \
b10 n
0(
0d
0+
b1000000100 e
b1 &
b1 I
b1 T
b1 o
0/
1-
#1090000
0-
#1095000
b1001 n
b10 &
b10 I
b10 T
b10 o
1-
#1100000
0-
#1105000
b0 n
b1000000100 ,
b1000000100 L
b1000000100 a
b111 b
1(
1d
1c
b1001 &
b1001 I
b1001 T
b1001 o
b1 s
1-
#1110000
0-
#1115000
b0 &
b0 I
b0 T
b0 o
1+
1*
0c
1-
#1120000
0-
#1125000
0*
b1 7"
b11111111 6"
b1000000100 5"
b1000000100 5
b111 9
b1000000100 3"
1-
#1130000
0-
#1135000
b1 n
b1 2
b1 =
b1 R
b11111111 1
b11111111 <
b11111111 Q
10
1/
1-
#1140000
0-
#1145000
b10 n
0(
0d
0+
1f
b1 h
b11111111 g
b1 &
b1 I
b1 T
b1 o
0/
1-
#1150000
0-
#1155000
b1001 n
b10 &
b10 I
b10 T
b10 o
1-
#1160000
0-
#1165000
b0 n
b100001110000000000000000000000001000011000000000000000000000000010000101000000000000000000000000100001000000000000000000000000001000001100000000000000000000000010000010000000000000000000000000101111111111011110101011011011111011101111 S
b1000 b
1(
1d
1c
b1001 &
b1001 I
b1001 T
b1001 o
b1011111111 u
b1000000100 w
b100001110000000000000000000000001000011000000000000000000000000010000101000000000000000000000000100001000000000000000000000000001000001100000000000000000000000010000010000000000000000000000000100000010011011110101011011011111011101111 t
b1 x
b11111111 v
b1 y
1-
#1170000
0-
#1175000
b0 &
b0 I
b0 T
b0 o
1+
1*
0c
1-
#1180000
0-
#1185000
0*
b10000110010111000110101 0"
b1011111111 /"
b1000000100 -"
b1011111111 3
b1110 8
b1000 9
1-
#1190000
0-
#1195000
b1 n
b0 2
b0 =
b0 R
b0 1
b0 <
b0 Q
00
1/
1-
#1200000
0-
#1205000
b10 n
0(
0d
0+
0f
b0 h
b0 g
b1 &
b1 I
b1 T
b1 o
0/
1-
#1210000
0-
#1215000
b1001 n
b10 &
b10 I
b10 T
b10 o
1-
#1220000
0-
#1225000
b0 n
b1011111111 ,
b1011111111 L
b1011111111 a
b1001 b
1(
1d
1c
b1001 &
b1001 I
b1001 T
b1001 o
b100001110000000000000000000000001000011000000000000000000000000010000101000000000000000000000000100001000000000000000000000000001000001100000000000000000000000010000010000000000000000000000000101111111111011110101011011011111011101111 r
1-
#1230000
0-
#1235000
b0 &
b0 I
b0 T
b0 o
1+
1*
0c
1-
#1240000
0-
#1245000
0*
b11000000000 2"
b1111 8
b1011111111 ,"
b1001 9
b1011111111 3"
1-
#1250000
0-
#1255000
b0 Y
b1 X
b0 W
b1 n
b11000000000 .
b11000000000 ;
b11000000000 P
1/
1-
#1260000
0-
#1265000
1`
0N
b0 ^
b0 %
b0 H
0G
0V
b1 ]
b0 \
b11 n
0(
0d
0+
b11000000000 e
b1 &
b1 I
b1 T
b1 o
0/
1-
#1270000
0-
#1275000
b100 n
b11 &
b11 I
b11 T
b11 o
1-
#1280000
0-
#1285000
b101 n
b101 k
1'
1m
1l
b100 &
b100 I
b100 T
b100 o
1-
#1290000
0-
#1295000
b101 &
b101 I
b101 T
b101 o
b100001110000000000000000000000001000011000000000000000000000000010000101000000000000000000000000100001000000000000000000000000001000001100000000000000000000000010000010000000000000000000000000101111111111011110101011011011111011101111 >
b100001110000000000000000000000001000011000000000000000000000000010000101000000000000000000000000100001000000000000000000000000001000001100000000000000000000000010000010000000000000000000000000101111111111011110101011011011111011101111 j
b100001110000000000000000000000001000011000000000000000000000000010000101000000000000000000000000100001000000000000000000000000001000001100000000000000000000000010000010000000000000000000000000101111111111011110101011011011111011101111 {
1?
1A
1#
1p
0l
1-
#1300000
0-
#1305000
b1 %"
0B
b10 #"
b100001110000000000000000000000001000011000000000000000000000000010000101000000000000000000000000100001000000000000000000000000001000001100000000000000000000000010000010000000000000000000000000101111111111011110101011011011111011101111 )"
1("
1'"
1#
1p
0A
1-
#1310000
0-
#1315000
1#
1p
b1 #"
1-
#1320000
0-
#1325000
b0 #"
1#
1p
1-
#1330000
0-
#1335000
1#
1p
b10 %"
1-
#1340000
0-
#1345000
b110 n
1B
b0 %"
0'"
1@
1#
1p
1-
#1350000
0-
#1355000
b111 n
b110 &
b110 I
b110 T
b110 o
1#
1p
0@
1-
#1360000
0-
#1365000
b11000000000 D
b11000000000 i
b11000000000 z
0?
1A
0#
0p
b111 &
b111 I
b111 T
b111 o
1-
#1370000
0-
#1375000
b110000000 |
0A
b1 %"
0B
b10 #"
b11000000000 &"
0("
1'"
1-
#1380000
0-
#1385000
b1 #"
1-
#1390000
0-
#1395000
b0 #"
1-
#1400000
0-
#1405000
b10 %"
1-
#1410000
0-
#1415000
b1000 n
1B
b0 %"
0'"
1@
b1100001110000000000000000000000011000011000000000000000000000000110000101000000000000000000000001100001000000000000000000000000011000001100000000000000000000000110000010000000000000000000000001100000010000000000000000000000011000000000 C
b1100001110000000000000000000000011000011000000000000000000000000110000101000000000000000000000001100001000000000000000000000000011000001100000000000000000000000110000010000000000000000000000001100000010000000000000000000000011000000000 [
b1100001110000000000000000000000011000011000000000000000000000000110000101000000000000000000000001100001000000000000000000000000011000001100000000000000000000000110000010000000000000000000000001100000010000000000000000000000011000000000 $"
1-
#1420000
0-
#1425000
b1001 n
0@
b1000 &
b1000 I
b1000 T
b1000 o
1-
#1430000
0-
#1435000
b0 n
0`
1N
b1001 &
b1001 I
b1001 T
b1001 o
b11000000000 ,
b11000000000 L
b11000000000 a
b0 )
b0 K
0J
0M
b1100001110000000000000000000000011000011000000000000000000000000110000101000000000000000000000001100001000000000000000000000000011000001100000000000000000000000110000010000000000000000000000001100000010000000000000000000000011000000000 S
b11 %
b11 H
1G
1V
b11000000000 U
b1100001110000000000000000000000011000011000000000000000000000000110000101000000000000000000000001100001000000000000000000000000011000001100000000000000000000000110000010000000000000000000000001100000010000000000000000000000011000000000 r
b0 s
1-
#1440000
0-
#1445000
1+
1*
b0 &
b0 I
b0 T
b0 o
1-
#1450000
0-
#1455000
0*
b1000000000 2"
b10001000010111000110010 0"
0."
b11011110101011011011111011101111 /"
b1000000000 -"
b10000 8
04
b11000000000 5
b101 :
04"
b11000000000 3"
1-
#1460000
0-
#1465000
b0 X
b1 n
b1000000000 .
b1000000000 ;
b1000000000 P
1/
1-
#1470000
0-
#1475000
1`
0N
b0 %
b0 H
0G
0V
b0 ]
b11 n
b1 &
b1 I
b1 T
b1 o
0'
0m
0+
b1000000000 e
0/
1-
#1480000
0-
#1485000
b110 n
b11 &
b11 I
b11 T
b11 o
1-
#1490000
0-
#1495000
b111 n
b110 &
b110 I
b110 T
b110 o
b110 k
1'
1m
1l
1-
#1500000
0-
#1505000
b1000000000 D
b1000000000 i
b1000000000 z
1A
0l
b111 &
b111 I
b111 T
b111 o
1-
#1510000
0-
#1515000
b10000000 |
0A
b1 %"
0B
b10 #"
b1000000000 &"
1'"
1-
#1520000
0-
#1525000
b1 #"
1-
#1530000
0-
#1535000
b0 #"
1-
#1540000
0-
#1545000
b10 %"
1-
#1550000
0-
#1555000
b1000 n
1B
b0 %"
0'"
1@
b100001110000000000000000000000001000011000000000000000000000000010000101000000000000000000000000100001000000000000000000000000001000001100000000000000000000000010000010000000000000000000000000101111111111011110101011011011111011101111 C
b100001110000000000000000000000001000011000000000000000000000000010000101000000000000000000000000100001000000000000000000000000001000001100000000000000000000000010000010000000000000000000000000101111111111011110101011011011111011101111 [
b100001110000000000000000000000001000011000000000000000000000000010000101000000000000000000000000100001000000000000000000000000001000001100000000000000000000000010000010000000000000000000000000101111111111011110101011011011111011101111 $"
1-
#1560000
0-
