cache_sim.vcd
$date
	Wed Jan 14 19:23:32 2026
$end
$version
	Icarus Verilog
$end
$timescale
	1ps
$end
$scope module tb_cache $end
$var wire 1 ! resp_valid $end
$var wire 8 " resp_rdata [7:0] $end
$var wire 1 # ready $end
$var wire 32 $ miss_count [31:0] $end
$var wire 32 % hit_count [31:0] $end
$var wire 1 & hit $end
$var reg 1 ' clk $end
$var reg 1 ( hit_flag $end
$var reg 8 ) read_data [7:0] $end
$var reg 8 * req_addr [7:0] $end
$var reg 1 + req_rw $end
$var reg 1 , req_valid $end
$var reg 8 - req_wdata [7:0] $end
$var reg 1 . rst $end
$var integer 32 / errors [31:0] $end
$var integer 32 0 test_num [31:0] $end
$scope module u_top $end
$var wire 1 ' clk $end
$var wire 8 1 req_addr [7:0] $end
$var wire 1 + req_rw $end
$var wire 1 , req_valid $end
$var wire 8 2 req_wdata [7:0] $end
$var wire 1 . rst $end
$var wire 1 ! resp_valid $end
$var wire 8 3 resp_rdata [7:0] $end
$var wire 1 # ready $end
$var wire 32 4 miss_count [31:0] $end
$var wire 1 5 mem_we $end
$var wire 8 6 mem_wdata [7:0] $end
$var wire 8 7 mem_rdata [7:0] $end
$var wire 8 8 mem_addr [7:0] $end
$var wire 32 9 hit_count [31:0] $end
$var wire 1 & hit $end
$scope module u_cache $end
$var wire 1 : cache_hit $end
$var wire 1 ' clk $end
$var wire 8 ; req_addr [7:0] $end
$var wire 1 + req_rw $end
$var wire 1 , req_valid $end
$var wire 8 < req_wdata [7:0] $end
$var wire 1 . rst $end
$var wire 4 = req_tag [3:0] $end
$var wire 2 > req_offset [1:0] $end
$var wire 2 ? req_index [1:0] $end
$var wire 8 @ mem_rdata [7:0] $end
$var wire 4 A latched_tag [3:0] $end
$var wire 2 B latched_offset [1:0] $end
$var wire 2 C latched_index [1:0] $end
$var wire 8 D block_base_addr [7:0] $end
$var parameter 3 E IDLE $end
$var parameter 3 F MISS_RD0 $end
$var parameter 3 G MISS_RD1 $end
$var parameter 3 H MISS_RD2 $end
$var parameter 3 I MISS_RD3 $end
$var parameter 3 J RESP $end
$var parameter 3 K WRITE_MEM $end
$var reg 1 & hit $end
$var reg 32 L hit_count [31:0] $end
$var reg 8 M latched_addr [7:0] $end
$var reg 1 N latched_rw $end
$var reg 8 O latched_wdata [7:0] $end
$var reg 8 P mem_addr [7:0] $end
$var reg 8 Q mem_wdata [7:0] $end
$var reg 1 5 mem_we $end
$var reg 32 R miss_count [31:0] $end
$var reg 3 S next_state [2:0] $end
$var reg 1 # ready $end
$var reg 8 T refill_byte0 [7:0] $end
$var reg 8 U refill_byte1 [7:0] $end
$var reg 8 V refill_byte2 [7:0] $end
$var reg 8 W refill_byte3 [7:0] $end
$var reg 8 X resp_rdata [7:0] $end
$var reg 1 ! resp_valid $end
$var reg 3 Y state [2:0] $end
$var integer 32 Z i [31:0] $end
$scope function get_byte $end
$var reg 32 [ block [31:0] $end
$var reg 2 \ offset [1:0] $end
$upscope $end
$scope function set_byte $end
$var reg 32 ] block [31:0] $end
$var reg 8 ^ byte_data [7:0] $end
$var reg 2 _ offset [1:0] $end
$upscope $end
$upscope $end
$scope module u_mem $end
$var wire 8 ` addr [7:0] $end
$var wire 1 ' clk $end
$var wire 8 a wdata [7:0] $end
$var wire 1 5 we $end
$var reg 8 b rdata [7:0] $end
$var integer 32 c i [31:0] $end
$upscope $end
$upscope $end
$scope task check_result $end
$var reg 8 d actual [7:0] $end
$var reg 1 e actual_hit $end
$var reg 8 f expected [7:0] $end
$var reg 1 g expected_hit $end
$var reg 256 h test_name [255:0] $end
$upscope $end
$scope task do_read $end
$var reg 8 i addr [7:0] $end
$var reg 8 j data [7:0] $end
$var reg 1 k hit_result $end
$upscope $end
$scope task do_write $end
$var reg 8 l addr [7:0] $end
$var reg 8 m data [7:0] $end
$var reg 1 n hit_result $end
$upscope $end
$upscope $end
$enddefinitions $end
$comment Show the parameter values. $end
$dumpall
b110 K
b101 J
b100 I
b11 H
b10 G
b1 F
b0 E
$end
#0
$dumpvars
xn
bx m
bx l
xk
bx j
bx i
bx h
xg
bx f
xe
bx d
b100000000 c
bx b
b0 a
b0 `
bx _
bx ^
bx ]
bx \
bx [
b100 Z
b0 Y
b0 X
b0 W
b0 V
b0 U
b0 T
b0 S
b0 R
b0 Q
b0 P
b0 O
0N
b0 M
b0 L
b0 D
b0 C
b0 B
b0 A
bx @
b0 ?
b0 >
b0 =
b0 <
b0 ;
0:
b0 9
b0 8
bx 7
b0 6
05
b0 4
b0 3
b0 2
b0 1
b0 0
b0 /
1.
b0 -
0,
0+
b0 *
bx )
x(
0'
0&
b0 %
b0 $
1#
b0 "
0!
$end
#5000
b0 7
b0 @
b0 b
b100 Z
1'
#10000
0'
#15000
b100 Z
1'
#20000
0'
#25000
b100 Z
1'
#30000
0'
#35000
b100 Z
1'
#40000
0'
#45000
0.
1'
#50000
0'
#55000
1'
#60000
0'
#65000
b10010 i
b1 0
1'
#70000
0'
#75000
b1 =
b10 >
b1 S
b10010 *
b10010 1
b10010 ;
1,
1'
#80000
0'
#85000
b1 A
b10 B
b10000 D
b10 S
b10000 8
b10000 P
b10000 `
0#
b1 $
b1 4
b1 R
b10010 M
b1 Y
0,
1'
#90000
0'
#95000
b11 S
b10 Y
b10001 8
b10001 P
b10001 `
b10000 7
b10000 @
b10000 b
1'
#100000
0'
#105000
b100 S
b10010 8
b10010 P
b10010 `
b10000 T
b11 Y
b10001 7
b10001 @
b10001 b
1'
#110000
0'
#115000
b101 S
b100 Y
b10011 8
b10011 P
b10011 `
b10001 U
b10010 7
b10010 @
b10010 b
1'
#120000
0'
#125000
b0 S
b10010 V
b101 Y
b10011 7
b10011 @
b10011 b
1'
#130000
0'
#135000
1:
b0 Y
1#
1!
b10010 "
b10010 3
b10010 X
b10011 W
1'
#140000
0'
#145000
0!
b10011 i
b10 0
b1000001001011100011000100100000010100100110010101100001011001000010000000110000011110000011000100110010 h
0e
0g
b10010 f
b10010 d
0(
b10010 )
0k
b10010 j
1'
#150000
0'
#155000
b11 >
b10011 *
b10011 1
b10011 ;
1,
1'
#160000
0'
#165000
b11 B
b1 %
b1 9
b1 L
1&
b10011 "
b10011 3
b10011 X
1!
b10011 M
0,
b10011000100100001000100010000 [
b11 \
1'
#170000
0'
#175000
0!
b10000 i
b11 0
b1000001001011100011001000100000010100100110010101100001011001000010000000110000011110000011000100110011 h
1e
1g
b10011 f
b10011 d
1(
b10011 )
1k
b10011 j
1'
#180000
0'
#185000
b0 >
b10000 *
b10000 1
b10000 ;
1,
1'
#190000
0'
#195000
b0 B
b10 %
b10 9
b10 L
b10000 "
b10000 3
b10000 X
1!
b10000 M
0,
b0 \
1'
#200000
0'
#205000
0!
b10001 i
b100 0
b1000001001011100011001100100000010100100110010101100001011001000010000000110000011110000011000100110000 h
b10000 f
b10000 d
b10000 )
b10000 j
1'
#210000
0'
#215000
b1 >
b10001 *
b10001 1
b10001 ;
1,
1'
#220000
0'
#225000
b1 B
b11 %
b11 9
b11 L
b10001 "
b10001 3
b10001 X
1!
b10001 M
0,
b1 \
1'
#230000
0'
#235000
0!
b10010 i
b101 0
b1000001001011100011010000100000010100100110010101100001011001000010000000110000011110000011000100110001 h
b10001 f
b10001 d
b10001 )
b10001 j
1'
#240000
0'
#245000
b10 >
b10010 *
b10010 1
b10010 ;
1,
1'
#250000
0'
#255000
b10 B
b100 %
b100 9
b100 L
b10010 "
b10010 3
b10010 X
1!
b10010 M
0,
b10 \
1'
#260000
0'
#265000
0!
b1010010 i
b110 0
b1000010001011100011000100100000010100100110010101100001011001000010000000110000011110000011000100110010 h
b10010 f
b10010 d
b10010 )
b10010 j
1'
#270000
0'
#275000
b1 S
0:
b101 =
b1010010 *
b1010010 1
b1010010 ;
1,
1'
#280000
0'
#285000
b101 A
b1010000 D
b10 S
b1010000 8
b1010000 P
b1010000 `
0#
b10 $
b10 4
b10 R
0&
b1010010 M
b1 Y
0,
1'
#290000
0'
#295000
b11 S
b10 Y
b1010001 8
b1010001 P
b1010001 `
b1010000 7
b1010000 @
b1010000 b
1'
#300000
0'
#305000
b100 S
b1010010 8
b1010010 P
b1010010 `
b1010000 T
b11 Y
b1010001 7
b1010001 @
b1010001 b
1'
#310000
0'
#315000
b101 S
b100 Y
b1010011 8
b1010011 P
b1010011 `
b1010001 U
b1010010 7
b1010010 @
b1010010 b
1'
#320000
0'
#325000
b0 S
b1010010 V
b101 Y
b1010011 7
b1010011 @
b1010011 b
1'
#330000
0'
#335000
1:
b0 Y
1#
1!
b1010010 "
b1010010 3
b1010010 X
b1010011 W
1'
#340000
0'
#345000
0!
b10010 i
b111 0
b1000010001011100011001000100000010100100110010101100001011001000010000000110000011110000011010100110010 h
0e
0g
b1010010 f
b1010010 d
0(
b1010010 )
0k
b1010010 j
1'
#350000
0'
#355000
b1 S
0:
b1 =
b10010 *
b10010 1
b10010 ;
1,
1'
#360000
0'
#365000
b1 A
b10000 D
b10 S
b10000 8
b10000 P
b10000 `
0#
b11 $
b11 4
b11 R
b10010 M
b1 Y
0,
1'
#370000
0'
#375000
b11 S
b10 Y
b10001 8
b10001 P
b10001 `
b10000 7
b10000 @
b10000 b
1'
#380000
0'
#385000
b100 S
b10010 8
b10010 P
b10010 `
b10000 T
b11 Y
b10001 7
b10001 @
b10001 b
1'
#390000
0'
#395000
b101 S
b100 Y
b10011 8
b10011 P
b10011 `
b10001 U
b10010 7
b10010 @
b10010 b
1'
#400000
0'
#405000
b0 S
b10010 V
b101 Y
b10011 7
b10011 @
b10011 b
1'
#410000
0'
#415000
1:
b0 Y
1#
1!
b10010 "
b10010 3
b10010 X
b10011 W
1'
#420000
0'
#425000
0!
b100100 i
b1000 0
b1000010001011100011001100100000010100100110010101100001011001000010000000110000011110000011000100110010 h
b10010 f
b10010 d
b10010 )
b10010 j
1'
#430000
0'
#435000
b1 S
0:
b10 =
b1 ?
b0 >
b100100 *
b100100 1
b100100 ;
1,
1'
#440000
0'
#445000
b10 A
b1 C
b0 B
b100100 D
b10 S
b100100 8
b100100 P
b100100 `
0#
b100 $
b100 4
b100 R
b100100 M
b1 Y
0,
1'
#450000
0'
#455000
b11 S
b10 Y
b100101 8
b100101 P
b100101 `
b100100 7
b100100 @
b100100 b
1'
#460000
0'
#465000
b100 S
b100110 8
b100110 P
b100110 `
b100100 T
b11 Y
b100101 7
b100101 @
b100101 b
1'
#470000
0'
#475000
b101 S
b100 Y
b100111 8
b100111 P
b100111 `
b100101 U
b100110 7
b100110 @
b100110 b
1'
#480000
0'
#485000
b0 S
b100110 V
b101 Y
b100111 7
b100111 @
b100111 b
1'
#490000
0'
#495000
1:
b0 Y
1#
1!
b100100 "
b100100 3
b100100 X
b100111 W
1'
#500000
0'
#505000
0!
b10101010 m
b100100 l
b1001 0
b1000011001011100011000100100000010100100110010101100001011001000010000000110000011110000011001000110100 h
b100100 f
b100100 d
b100100 )
b100100 j
1'
#510000
0'
#515000
b110 S
b10101010 -
b10101010 2
b10101010 <
1+
1,
1'
#520000
0'
#525000
b0 S
b10101010 6
b10101010 Q
b10101010 a
b100100 8
b100100 P
b100100 `
b101 %
b101 9
b101 L
1&
0#
1N
b10101010 O
b110 Y
0,
b100111001001100010010100100100 ]
b0 _
b10101010 ^
1'
#530000
0'
#535000
b0 Y
1#
b0 "
b0 3
b0 X
1!
15
b100100 7
b100100 @
b100100 b
1'
#540000
0'
#545000
05
0!
b1010 0
1(
1n
1'
#550000
0'
#555000
b10101010 7
b10101010 @
b10101010 b
b0 -
b0 2
b0 <
0+
1,
1'
#560000
0'
#565000
b110 %
b110 9
b110 L
b10101010 "
b10101010 3
b10101010 X
1!
0N
b0 O
0,
b100111001001100010010110101010 [
b0 \
1'
#570000
0'
#575000
0!
b1100100 i
b1011 0
b1000011001011100011001100100000010100100110010101100001011001000010000000110000011110000011001000110100 h
1e
1g
b10101010 f
b10101010 d
b10101010 )
1k
b10101010 j
1'
#580000
0'
#585000
b1 S
0:
b110 =
b1100100 *
b1100100 1
b1100100 ;
1,
1'
#590000
0'
#595000
b110 A
b1100100 D
b10 S
b1 Y
b1100100 8
b1100100 P
b1100100 `
0#
b101 $
b101 4
b101 R
0&
b1100100 M
0,
1'
#600000
0'
#605000
b11 S
b1100101 8
b1100101 P
b1100101 `
b10 Y
b1100100 7
b1100100 @
b1100100 b
1'
#610000
0'
#615000
b100 S
b11 Y
b1100110 8
b1100110 P
b1100110 `
b1100100 T
b1100101 7
b1100101 @
b1100101 b
1'
#620000
0'
#625000
b101 S
b1100111 8
b1100111 P
b1100111 `
b1100101 U
b100 Y
b1100110 7
b1100110 @
b1100110 b
1'
#630000
0'
#635000
b0 S
b101 Y
b1100110 V
b1100111 7
b1100111 @
b1100111 b
1'
#640000
0'
#645000
1:
1#
1!
b1100100 "
b1100100 3
b1100100 X
b1100111 W
b0 Y
1'
#650000
0'
#655000
0!
b100100 i
b1100 0
b1000011001011100011010000100000010100100110010101100001011001000010000000110000011110000011011000110100 h
0e
0g
b1100100 f
b1100100 d
0(
b1100100 )
0k
b1100100 j
1'
#660000
0'
#665000
b1 S
0:
b10 =
b100100 *
b100100 1
b100100 ;
1,
1'
#670000
0'
#675000
b10 A
b100100 D
b10 S
b1 Y
b100100 8
b100100 P
b100100 `
0#
b110 $
b110 4
b110 R
b100100 M
0,
1'
#680000
0'
#685000
b11 S
b100101 8
b100101 P
b100101 `
b10 Y
b10101010 7
b10101010 @
b10101010 b
1'
#690000
0'
#695000
b100 S
b11 Y
b100110 8
b100110 P
b100110 `
b10101010 T
b100101 7
b100101 @
b100101 b
1'
#700000
0'
#705000
b101 S
b100111 8
b100111 P
b100111 `
b100101 U
b100 Y
b100110 7
b100110 @
b100110 b
1'
#710000
0'
#715000
b0 S
b101 Y
b100110 V
b100111 7
b100111 @
b100111 b
1'
#720000
0'
#725000
1:
1#
1!
b10101010 "
b10101010 3
b10101010 X
b100111 W
b0 Y
1'
#730000
0'
#735000
0!
b10111011 m
b10001000 l
b1101 0
b1000011001011100011010100100000010100100110010101100001011001000010000000110000011110000011001000110100 h
b10101010 f
b10101010 d
b10101010 )
b10101010 j
1'
#740000
0'
#745000
0:
b1000 =
b10 ?
b110 S
b10111011 -
b10111011 2
b10111011 <
b10001000 *
b10001000 1
b10001000 ;
1+
1,
1'
#750000
0'
#755000
b1000 A
b10 C
b10001000 D
b0 S
b110 Y
b10111011 6
b10111011 Q
b10111011 a
b10001000 8
b10001000 P
b10001000 `
b111 $
b111 4
b111 R
0#
1N
b10111011 O
b10001000 M
0,
1'
#760000
0'
#765000
1#
b0 "
b0 3
b0 X
1!
15
b0 Y
b10001000 7
b10001000 @
b10001000 b
1'
#770000
0'
#775000
05
0!
b10001000 i
b1110 0
0n
1'
#780000
0'
#785000
b1 S
b10111011 7
b10111011 @
b10111011 b
b0 -
b0 2
b0 <
0+
1,
1'
#790000
0'
#795000
b10 S
b1 Y
0#
b1000 $
b1000 4
b1000 R
0N
b0 O
0,
1'
#800000
0'
#805000
b11 S
b10001001 8
b10001001 P
b10001001 `
b10 Y
1'
#810000
0'
#815000
b100 S
b11 Y
b10001010 8
b10001010 P
b10001010 `
b10111011 T
b10001001 7
b10001001 @
b10001001 b
1'
#820000
0'
#825000
b101 S
b10001011 8
b10001011 P
b10001011 `
b10001001 U
b100 Y
b10001010 7
b10001010 @
b10001010 b
1'
#830000
0'
#835000
b0 S
b101 Y
b10001010 V
b10001011 7
b10001011 @
b10001011 b
1'
#840000
0'
#845000
1:
1#
1!
b10111011 "
b10111011 3
b10111011 X
b10001011 W
b0 Y
1'
#850000
0'
#855000
0!
b1111 0
b1000100001011100011001000100000010100100110010101100001011001000010000000110000011110000011100000111000 h
b10111011 f
b10111011 d
b10111011 )
b10111011 j
1'
#860000
0'
#865000
1,
1'
#870000
0'
#875000
b111 %
b111 9
b111 L
1&
1!
0,
b10001011100010101000100110111011 [
1'
#880000
0'
#885000
0!
b1100 i
b10000 0
b1000100001011100011001100100000010100100110010101100001011001000010000000110000011110000011100000111000 h
1e
1g
1(
1k
1'
#890000
0'
#895000
b1 S
0:
b0 =
b11 ?
b1100 *
b1100 1
b1100 ;
1,
1'
#900000
0'
#905000
b0 A
b11 C
b1100 D
b10 S
b1100 8
b1100 P
b1100 `
0#
b1001 $
b1001 4
b1001 R
0&
b1100 M
b1 Y
0,
1'
#910000
0'
#915000
b11 S
b10 Y
b1101 8
b1101 P
b1101 `
b1100 7
b1100 @
b1100 b
1'
#920000
0'
#925000
b100 S
b1110 8
b1110 P
b1110 `
b1100 T
b11 Y
b1101 7
b1101 @
b1101 b
1'
#930000
0'
#935000
b101 S
b100 Y
b1111 8
b1111 P
b1111 `
b1101 U
b1110 7
b1110 @
b1110 b
1'
#940000
0'
#945000
b0 S
b1110 V
b101 Y
b1111 7
b1111 @
b1111 b
1'
#950000
0'
#955000
1:
b0 Y
1#
1!
b1100 "
b1100 3
b1100 X
b1111 W
1'
#960000
0'
#965000
0!
b1111 i
b10001 0
b1000101001011100011000100100000010100100110010101100001011001000010000000110000011110000011000001000011 h
0e
0g
b1100 f
b1100 d
0(
b1100 )
0k
b1100 j
1'
#970000
0'
#975000
b11 >
b1111 *
b1111 1
b1111 ;
1,
1'
#980000
0'
#985000
b11 B
b1000 %
b1000 9
b1000 L
1&
b1111 "
b1111 3
b1111 X
1!
b1111 M
0,
b1111000011100000110100001100 [
b11 \
1'
#990000
0'
#995000
0!
b0 i
b10010 0
b1000101001011100011001000100000010100100110010101100001011001000010000000110000011110000011000001000110 h
1e
1g
b1111 f
b1111 d
1(
b1111 )
1k
b1111 j
1'
#1000000
0'
#1005000
b1 S
0:
b0 ?
b0 >
b0 *
b0 1
b0 ;
1,
1'
#1010000
0'
#1015000
b0 C
b0 B
b0 D
b10 S
b1 Y
b0 8
b0 P
b0 `
0#
b1010 $
b1010 4
b1010 R
0&
b0 M
0,
1'
#1020000
0'
#1025000
b11 S
b1 8
b1 P
b1 `
b10 Y
b0 7
b0 @
b0 b
1'
#1030000
0'
#1035000
b100 S
b11 Y
b10 8
b10 P
b10 `
b0 T
b1 7
b1 @
b1 b
1'
#1040000
0'
#1045000
b101 S
b11 8
b11 P
b11 `
b1 U
b100 Y
b10 7
b10 @
b10 b
1'
#1050000
0'
#1055000
b0 S
b101 Y
b10 V
b11 7
b11 @
b11 b
1'
#1060000
0'
#1065000
1:
1#
1!
b0 "
b0 3
b0 X
b11 W
b0 Y
1'
#1070000
0'
#1075000
0!
b11111111 i
b10011 0
b1000101001011100011001100100000010100100110010101100001011001000010000000110000011110000011000000110000 h
0e
0g
b0 f
b0 d
0(
b0 )
0k
b0 j
1'
#1080000
0'
#1085000
b1 S
0:
b1111 =
b11 ?
b11 >
b11111111 *
b11111111 1
b11111111 ;
1,
1'
#1090000
0'
#1095000
b1111 A
b11 C
b11 B
b11111100 D
b10 S
b1 Y
b11111100 8
b11111100 P
b11111100 `
0#
b1011 $
b1011 4
b1011 R
b11111111 M
0,
1'
#1100000
0'
#1105000
b11 S
b11111101 8
b11111101 P
b11111101 `
b10 Y
b11111100 7
b11111100 @
b11111100 b
1'
#1110000
0'
#1115000
b100 S
b11 Y
b11111110 8
b11111110 P
b11111110 `
b11111100 T
b11111101 7
b11111101 @
b11111101 b
1'
#1120000
0'
#1125000
b101 S
b11111111 8
b11111111 P
b11111111 `
b11111101 U
b100 Y
b11111110 7
b11111110 @
b11111110 b
1'
#1130000
0'
#1135000
b0 S
b101 Y
b11111110 V
b11111111 7
b11111111 @
b11111111 b
1'
#1140000
0'
#1145000
1:
1#
1!
b11111111 "
b11111111 3
b11111111 X
b11111111 W
b0 Y
1'
#1150000
0'
#1155000
0!
b1000101001011100011010000100000010100100110010101100001011001000010000000110000011110000100011001000110 h
b11111111 f
b11111111 d
b11111111 )
b11111111 j
1'
